claim amount-based fraud trigger — claim_amount_trigger_map • SSSIHLCASFraudClassifyR
…
    Examples

library(dplyr)

data(claims_data_sample)
data(trigger_data)

claim_amount_trigger_map(
claims_file = claims_data_sample,
claim_paid_field = "approved_allowed_amount",
triggers_file = trigger_data,
procedure_code = "primary_procedure_code",
procedure_amount_field = "package_amount_trigger") %>%
select(c("approved_allowed_amount", "claim_amount_ratio", "claim_amount_flag"))
#> # A tibble: 1,000 × 3
#>    approved_allowed_amount claim_amount_ratio claim_amount_flag
#>                      <dbl>              <dbl>             <dbl>
#>  1                   15300              1.99                  1
#>  2                   13500              1.8                   1
#>  3                   16200              0.814                 1
#>  4                   10800              1.17                  1
#>  5                    5400              0.651                 1
#>  6                   23400              0.992                 1
#>  7                   10800              0.543                 1
#>  8                   16200              1.95                  1
#>  9                   10800              1.44                  1
#> 10                    1800              0.196                 1
#> # ℹ 990 more rows
…
